[
  {
    "run_id": 3691,
    "type_id": 3,
    "milestone_id": null,
    "estimate_forecast": null,
    "title": "TC_001_Get list of Categories",
    "custom_preconds": "To verify the response for the get list of Category end point.",
    "priority_id": 2,
    "status_id": 3,
    "refs": null,
    "custom_step": [
      {
        "expected": "  {\n\"total\": 19,\n\"per_page\": 10,\n\"current_page\": 1,\n\"last_page\": 2,\n\"next_page_url\": \"http:\/\/sso8.t2scdn.com\/category?api_token=b1871996475af554f08e612a65635343ffd5c078&page=2\",\n\"prev_page_url\": null,\n\"from\": 1,\n\"to\": 10,\n\"data\": [\n    {\n        \"id\": 641619,\n        \"host\": \"sso4.t2scdn.com\",\n        \"name\": \"Gupta\",\n        \"pos\": 0,\n        \"pos_back\": 0,\n        \"background_color\": \"0000FF\",\n        \"font_color\": \"ffffff\",\n        \"shrink\": 0,\n        \"hidden\": \"\",\n        \"collection\": 1,\n        \"delivery\": 1,\n        \"mip_id\": 0,\n        \"monday\": 1,\n        \"tuesday\": 1,\n        \"wednesday\": 1,\n        \"thursday\": 1,\n        \"friday\": 1,\n        \"saturday\": 1,\n        \"sunday\": 1,\n        \"coupon_allowed\": 1,\n        \"collection_discount_allowed\": 1,\n        \"online_discount_allowed\": 1,\n        \"added\": \"2018-03-20 11:04:24\",\n        \"exclude_free\": 1,\n        \"second_language_name\": null,\n        \"second_language_description\": null,\n        \"printer\": 0,\n        \"section\": 0,\n        \"updated_at\": \"2018-03-21 10:02:01\"\n    }\n  ]\n}",
        "content": "http:\/\/sso8.t2scdn.com\/category?api_token=b1871996475af554f08e612a65635343ffd5c078 (passing the SSO4 api token)"
      },
      {
        "expected": "",
        "content": ""
      },
      {
        "expected": "",
        "content": ""
      },
      {
        "expected": "",
        "content": ""
      }
    ],
    "case_id": 106421,
    "estimate": null,
    "assignedto_id": null,
    "custom_testype": null,
    "template_id": 1,
    "id": 4978488
  },
  {
    "run_id": 3691,
    "type_id": 3,
    "milestone_id": null,
    "estimate_forecast": null,
    "title": "TC_002_Get Category",
    "custom_preconds": null,
    "priority_id": 2,
    "status_id": 3,
    "refs": null,
    "custom_step": [
      {
        "expected": " {\n\"data\": [\n    {\n        \"id\": 641562,\n        \"host\": \"sso4.t2scdn.com\",\n        \"name\": \"Gupta\",\n        \"pos\": 0,\n        \"pos_back\": 0,\n        \"background_color\": \"0000FF\",\n        \"font_color\": \"ffffff\",\n        \"shrink\": 0,\n        \"hidden\": \"\",\n        \"collection\": 1,\n        \"delivery\": 1,\n        \"mip_id\": 0,\n        \"monday\": 1,\n        \"tuesday\": 1,\n        \"wednesday\": 1,\n        \"thursday\": 1,\n        \"friday\": 1,\n        \"saturday\": 1,\n        \"sunday\": 1,\n        \"coupon_allowed\": 1,\n        \"collection_discount_allowed\": 1,\n        \"online_discount_allowed\": 1,\n        \"added\": \"2018-03-19 05:07:43\",\n        \"exclude_free\": 1,\n        \"second_language_name\": null,\n        \"printer\": 0,\n        \"section\": 0,\n        \"updated_at\": null\n    }\n  ]\n}",
        "content": "http:\/\/sso8.t2scdn.com\/category\/641562?api_token=b1871996475af554f08e612a65635343ffd5c078 (passing the SSO4 api token)\nExpected Response:"
      }
    ],
    "case_id": 106428,
    "estimate": null,
    "assignedto_id": null,
    "custom_testype": null,
    "template_id": 1,
    "id": 4978489
  },
  {
    "run_id": 3691,
    "type_id": 3,
    "milestone_id": null,
    "estimate_forecast": null,
    "title": "TC_003_Add Category",
    "custom_preconds": null,
    "priority_id": 2,
    "status_id": 3,
    "refs": null,
    "custom_step": [
      {
        "expected": "    {\n\"outcome\": \"success\",\n\"resource_id\": XXXXX\n  }",
        "content": "http:\/\/sso8.t2scdn.com\/category?api_token=b1871996475af554f08e612a65635343ffd5c078"
      }
    ],
    "case_id": 106429,
    "estimate": null,
    "assignedto_id": null,
    "custom_testype": null,
    "template_id": 1,
    "id": 4978490
  },
  {
    "run_id": 3691,
    "type_id": 3,
    "milestone_id": null,
    "estimate_forecast": null,
    "title": "TC_004_Update Category",
    "custom_preconds": null,
    "priority_id": 2,
    "status_id": 3,
    "refs": null,
    "custom_step": [
      {
        "expected": " {\n\"outcome\": \"success\"\n  }",
        "content": "http:\/\/sso8.t2scdn.com\/category\/641562?api_token=b1871996475af554f08e612a65635343ffd5c078"
      }
    ],
    "case_id": 106430,
    "estimate": null,
    "assignedto_id": null,
    "custom_testype": null,
    "template_id": 1,
    "id": 4978491
  },
  {
    "run_id": 3691,
    "type_id": 3,
    "milestone_id": null,
    "estimate_forecast": null,
    "title": "TC_005_Delete Category",
    "custom_preconds": null,
    "priority_id": 2,
    "status_id": 3,
    "refs": null,
    "custom_step": [
      {
        "expected": "   { \n      \"outcome\": \"success\" \n       }",
        "content": "http:\/\/sso8.t2scdn.com\/category\/641566?api_token=b1871996475af554f08e612a65635343ffd5c078"
      }
    ],
    "case_id": 106431,
    "estimate": null,
    "assignedto_id": null,
    "custom_testype": null,
    "template_id": 1,
    "id": 4978492
  },
  {
    "run_id": 3691,
    "type_id": 3,
    "milestone_id": null,
    "estimate_forecast": null,
    "title": "TC_006_Search Category",
    "custom_preconds": null,
    "priority_id": 2,
    "status_id": 3,
    "refs": null,
    "custom_step": [
      {
        "expected": " {\n\"total\": 1,\n\"per_page\": 10,\n\"current_page\": 1,\n\"last_page\": 1,\n\"next_page_url\": null,\n\"prev_page_url\": null,\n\"from\": 1,\n\"to\": 1,\n\"data\": [\n    {\n        \"id\": 641616,\n        \"host\": \"sso1.t2scdn.com\",\n        \"name\": \"Idly\",\n        \"pos\": 25,\n        \"pos_back\": 0,\n        \"background_color\": \"0000FF\",\n        \"font_color\": \"ffffff\",\n        \"shrink\": 0,\n        \"hidden\": \"0\",\n        \"collection\": 0,\n        \"delivery\": 1,\n        \"mip_id\": 0,\n        \"monday\": 1,\n        \"tuesday\": 1,\n        \"wednesday\": 1,\n        \"thursday\": 1,\n        \"friday\": 1,\n        \"saturday\": 1,\n        \"sunday\": 1,\n        \"coupon_allowed\": 1,\n        \"collection_discount_allowed\": 1,\n        \"online_discount_allowed\": 1,\n        \"added\": \"2018-03-19 11:25:57\",\n        \"exclude_free\": 1,\n        \"second_language_name\": \"\",\n        \"second_language_description\": null,\n        \"printer\": 0,\n        \"section\": 0,\n        \"updated_at\": \"2018-03-21 10:02:01\"\n    }\n  ]\n}",
        "content": "http:\/\/sso8.t2scdn.com\/category\/search?api_token=d07328fb205a448dbc474261b6300b74c6d0770f"
      }
    ],
    "case_id": 106432,
    "estimate": null,
    "assignedto_id": null,
    "custom_testype": null,
    "template_id": 1,
    "id": 4978493
  }
]
